<svg width="409" height="210" viewBox="0 0 409 210" fill="none" xmlns="http://www.w3.org/2000/svg">
<path d="M34.675 253C-25.3446 253 -74 210.523 -74 158.125C-74 105.727 -25.3446 63.25 34.675 63.25C44.8055 63.25 54.6124 64.4601 63.9161 66.7239C88.3549 27.0055 136.39 0 191.65 0C263.659 0 323.4 45.8571 334.647 105.946C376.533 110.331 409 141.46 409 179.208C409 219.962 371.157 253 324.475 253H34.675Z" fill="#BFDCE6" fill-opacity="0.95"/>
</svg>
